<?xml version="1.0" encoding="utf-8"?>
<!-- Generator: Adobe Illustrator 22.0.0, SVG Export Plug-In . SVG Version: 6.00 Build 0)  -->
<svg version="1.1" id="Layer_1" xmlns="http://www.w3.org/2000/svg" xmlns:xlink="http://www.w3.org/1999/xlink" x="0px" y="0px"
	 viewBox="0 0 82.1 83.4" style="enable-background:new 0 0 82.1 83.4;" xml:space="preserve">
<style type="text/css">
	.st0{fill:#FFFFFF;}
</style>
<title>Down arrow - Green</title>
<g id="Controller">
	<g id="up_arrow">
		<polygon class="st0" points="40.5,13.7 0.2,13.7 0.2,69.6 40.5,69.6 40.5,83.4 82.3,41.7 40.5,0 		"/>
	</g>
</g>
</svg>
