<?xml version="1.0" encoding="utf-8"?>
<!-- Generator: Adobe Illustrator 22.0.0, SVG Export Plug-In . SVG Version: 6.00 Build 0)  -->
<svg version="1.1" id="Layer_1" xmlns="http://www.w3.org/2000/svg" xmlns:xlink="http://www.w3.org/1999/xlink" x="0px" y="0px"
	 viewBox="0 0 512 512" style="enable-background:new 0 0 512 512;" xml:space="preserve">
<style type="text/css">
	.st0{display:none;fill:url(#SVGID_1_);}
	.st1{fill:url(#SVGID_2_);}
	.st2{fill:url(#SVGID_3_);}
	.st3{fill:#C8FF00;}
	.st4{fill:#CCCCCC;}
	.st5{fill:#FFFFFF;}
	.st6{fill:url(#SVGID_4_);}
	.st7{fill:url(#SVGID_5_);}
	.st8{fill:url(#SVGID_6_);}
	.st9{fill:url(#SVGID_7_);}
	.st10{fill:url(#SVGID_8_);}
	.st11{fill:url(#SVGID_9_);}
	.st12{fill:url(#SVGID_10_);}
	.st13{fill:url(#SVGID_11_);}
	.st14{fill:url(#SVGID_12_);}
	.st15{fill:url(#SVGID_13_);}
	.st16{fill:url(#SVGID_14_);}
	.st17{fill:url(#SVGID_15_);}
	.st18{fill:url(#SVGID_16_);}
	.st19{fill:url(#SVGID_17_);}
	.st20{fill:url(#SVGID_18_);}
	.st21{fill:url(#SVGID_19_);}
	.st22{fill:#B3B3B3;}
</style>
<g>
	<radialGradient id="SVGID_1_" cx="256" cy="256" r="256" gradientUnits="userSpaceOnUse">
		<stop  offset="0" style="stop-color:#15FF99"/>
		<stop  offset="1" style="stop-color:#1E002A"/>
	</radialGradient>
	<path class="st0" d="M472,512H40c-22,0-40-18-40-40V40C0,18,18,0,40,0h432c22,0,40,18,40,40v432C512,494,494,512,472,512z"/>
	
		<radialGradient id="SVGID_2_" cx="171.4503" cy="238.5619" r="192.0515" gradientTransform="matrix(1.9266 0 0 1.2969 -74.321 -53.3819)" gradientUnits="userSpaceOnUse">
		<stop  offset="0" style="stop-color:#696969"/>
		<stop  offset="1" style="stop-color:#000000"/>
	</radialGradient>
	<path class="st1" d="M472,512H40c-22.1,0-40-17.9-40-40V40C0,17.9,17.9,0,40,0h432c22.1,0,40,17.9,40,40v432
		C512,494.1,494.1,512,472,512z"/>
	<linearGradient id="SVGID_3_" gradientUnits="userSpaceOnUse" x1="261.591" y1="406.4702" x2="261.591" y2="324.0303">
		<stop  offset="0" style="stop-color:#B3B3B3"/>
		<stop  offset="1" style="stop-color:#666666"/>
	</linearGradient>
	<path class="st2" d="M28.3,345c68.2-13.3,136.4-26.5,204.6-39.8c87.3,10.4,174.7,20.8,262,31.1L295,406.5L28.3,345z"/>
	<g>
		<g>
			<path class="st3" d="M243.8,339.6c-2.8-3.6-5.7-7.2-8.5-10.8c0.4-0.3,0.7-0.6,1.1-0.8c2.1,2.4,4.2,4.8,6.4,7.2
				c0.2-0.2,0.4-0.3,0.6-0.5c-1.3-3.2-2.7-6.3-4-9.5c0.3-0.2,0.7-0.4,1-0.6c1.6,1.9,3.1,3.8,4.8,5.8c5.1-6.4,4.2-25.9-1.6-34.3
				c-1.6,2.3-3.1,4.4-4.5,6.5c-0.3-0.1-0.7-0.2-1-0.3c1-3.2,2-6.5,3-9.7c-0.2-0.2-0.4-0.4-0.6-0.6c-1.9,2.4-3.7,4.9-5.6,7.3
				c-0.4-0.3-0.8-0.5-1.2-0.8c2.4-3.6,4.8-7.2,7.6-11.3c-3-3.4-7.2-2.9-9.9,1.8c-2.4,4.2-4.2,9.1-4.7,13.9
				c-1.4,11.6-0.5,23.1,5.8,33.4C236,342.5,239.4,343.1,243.8,339.6z"/>
			<path class="st3" d="M85.9,292.5c-6.4,2.9-5.7,9.5-5.8,15.2c-0.3,10.8,2.8,16.8,8.6,17.8c0-2.6-5-5.9,1.9-7.5
				c3.5-0.8,0.5-15.2-2.9-17.3C86.2,299.9,86.6,296.2,85.9,292.5z"/>
			<path class="st3" d="M387,311.7c7.7,6.9,7.7,6.9,10.7,0.3c-8.1-1.1-15.6-2.2-23.4-3.3c1.1,13,9.5,19.4,18.5,15.6
				c-2.6-1.9-5.4-3.8-8.1-5.8c0.3-0.4,0.5-0.9,0.8-1.3c1.6,1,3.2,2.1,5.9,3.7C389.7,317.6,388.6,315.3,387,311.7z"/>
			<path class="st3" d="M371.5,299c4.6,0.6,7.6,0.9,11.2,1.4c-0.8-5.4-1.6-10-2.3-14.5c-0.6-0.2-1.3-0.5-1.9-0.7
				C376.4,289.4,374.2,293.6,371.5,299z"/>
		</g>
		<path class="st4" d="M98.9,331.8c-0.9-0.4-2.5-1.2-2.6-1.1c-1.8,2.9-3.4,5.9-5.6,9.8c3.1,0.1,5.1,0.2,7.6,0.3
			c-1.2-1.3-1.9-2.2-3.1-3.5c2.9-0.5,5.2-1,5.8-1.1c-0.6-1.2-1.5-3-2.3-4.7C98.7,331.7,98.9,331.8,98.9,331.8z"/>
		<path class="st5" d="M310.6,318.4c-1.3-1.9-2.7-3.8-4-5.6c-1.3,1.6-2.6,3.2-3.9,4.8c1.9,1.1,3.9,2.2,5.8,3.4
			C309.2,320.1,309.9,319.2,310.6,318.4z"/>
		<path class="st5" d="M310.7,306.4c-1.8-1.7-3.6-3.3-5.3-5c-0.8,1.2-2.5,3.2-2.2,3.4c1.5,1.7,3.5,3,5.3,4.5
			C309.2,308.4,310,307.4,310.7,306.4z"/>
		<g>
			<linearGradient id="SVGID_4_" gradientUnits="userSpaceOnUse" x1="299.8949" y1="199.3697" x2="347.0002" y2="199.3697">
				<stop  offset="0" style="stop-color:#00FFFF"/>
				<stop  offset="1" style="stop-color:#29ABE2"/>
			</linearGradient>
			<path class="st6" d="M315.4,197c9.9-1.4,19.8-2.8,31.6-4.5c-2.6-1.8-3.8-3.4-4.8-3.3c-11.2,1.3-22.4,2.9-33.6,4.4
				c-8.4,1.1-9.2,7.3-8.7,14.2c0.3-0.8,0.7-1.7,1.2-3c0.9,1.5,1.7,2.8,2.9,4.6c1-2,1.7-3.3,2.6-4.9c2,5.8,3.6,2.3,5.1-0.2
				c0.9,1.1,1.6,2.1,2.7,3.4c0.8-1.7,1.3-2.8,2.5-5.5c0.8,2,1.3,3.4,2.3,6.1c1.3-3.2,1.9-4.4,2.5-6c1,1.4,1.8,2.6,3.2,4.6
				c0.8-2,1.3-3.3,2-5c0.9,1.3,1.8,2.5,3.1,4.2c1-1.9,1.7-3.4,2.4-4.9c0.7,1.3,1.4,2.5,2.6,4.5c1.2-2,2-3.3,2.8-4.7
				c0.8,1.4,1.5,2.6,2.6,4.5c1-2.1,1.6-3.4,2.4-5.3c1,1.7,1.7,3,2.5,4.4c0.4-0.1,0.9-0.2,1.3-0.3c-0.2-2.2-0.3-4.4-0.5-6.7
				c-10.8,0-21,0-31.3,0C315.2,197.5,315.3,197.3,315.4,197z"/>
			<g>
				<linearGradient id="SVGID_5_" gradientUnits="userSpaceOnUse" x1="272.94" y1="271.6826" x2="272.94" y2="147.7356">
					<stop  offset="3.278680e-02" style="stop-color:#8CC63F"/>
					<stop  offset="0.1889" style="stop-color:#A3DC26"/>
					<stop  offset="0.3707" style="stop-color:#B8EF11"/>
					<stop  offset="0.5477" style="stop-color:#C4FB04"/>
					<stop  offset="0.7131" style="stop-color:#C8FF00"/>
					<stop  offset="0.9857" style="stop-color:#F7FFD8"/>
				</linearGradient>
				<path class="st7" d="M286.5,217.7c-3.1-8.8-8.5-12.4-17.6-10.8c-8.9,1.5-17.7,3.5-26.5,5.5c-8,1.8-13.7,7-14.9,14.9
					c-1.3,8.8-0.7,17.9-1.2,26.9c-0.1,2.6-0.8,5.4-2.1,7.7c-4.7,8.7-13.3,7.5-21.4,7.5c1.5-0.2,3.1-0.5,4.6-0.7
					c0-0.4-0.1-0.8-0.1-1.2c-24.9,1.4-49.9,2.8-74.8,4.2c0-0.3,0-0.6,0-0.9c15.4-2.1,30.8-4.2,46.2-6.3c0-0.3-0.1-0.7-0.1-1
					c-15.8,1.3-31.6,2.7-47.4,4c0-0.2,0-0.4,0-0.7c4.2-0.9,8.4-1.7,12.6-2.6c0-0.3-0.1-0.5-0.1-0.8c-2.6,0-5.3,0-8.6,0
					c-0.5-3.3-0.9-6.3-1.4-9.7c28.4-4.5,56-9,83.7-13.4c-0.1-0.9-0.3-1.8-0.4-2.6c-20.8,3-41.6,6.1-62.4,9.1
					c-0.3-0.7-0.6-1.4-0.9-2.1c1.5-1,2.9-2.4,4.5-2.9c4.3-1.2,8.8-1.9,13.2-2.9c14.7-3.2,29.4-6.4,44.2-9.6
					c-0.1-0.4-0.2-0.8-0.3-1.2c-20.6,3.4-41.1,6.7-62.2,10.2c-1.8-24.7,6.1-47.1,7.7-70.2c-11.6,3-21.9,21.8-20.7,37.7
					c4.1-1,8.2-1.9,11.8-2.7c0,11.9,0,23.5,0,35.5c-7.1,1.2-13.4,2.2-20.4,3.4c-0.4-25.1,4.4-47.6,14.9-68.7c1.6-3.2,5-6,8.3-7.6
					c11.5-5.3,23.2-10,34.9-14.8c4.9-2.1,8.8-0.4,11.9,3.7c3,4,6,8,9,12c0.4-0.3,0.8-0.5,1.2-0.8c-3.5-5.8-6.9-11.5-10.9-18.2
					c11.7,0,22.5,0,32.1,0c-8.2,0.6-17.5,1.2-27.8,1.9c3.7,5.7,6.6,10.5,9.8,15c5.4,7.4,8.3,14.9,4.5,24.3c-1.5,3.7-2.6,6-6.8,7.1
					c-8.6,2.2-17.1,5.1-25.6,7.7c0.1,0.4,0.2,0.8,0.4,1.2c9.9-2.5,19.9-4.9,29.6-7.3c1.2,13.5,2.4,26.3,3.5,39
					c0.4,0,0.7-0.1,1.1-0.1c0-5.8,0-11.6,0-17.4l-0.1,0.1c3.6-7.4,10.2-10.5,17.8-11.9c11.1-2,22.2-4,33.3-5.5
					c8.2-1.1,11.5,1.3,14.3,9.1c0.6,1.6,1.2,3.3,1.8,5.1c11.5-1.4,22.7-3.8,33.8-3.9c23.4-0.2,46.9,0.7,70.3,1.6
					c7.3,0.3,14.6,1.9,21.8,3c-40.6-3.1-81.1-4.3-121.6,1.2c-1.2,0.2-2.4,0.9-3.6,1.4c0.6,4.4,1.1,8.4,1.7,12.4
					C289.7,227,288.1,222.4,286.5,217.7z M204.8,186.6c0.7,0,1.5-2.1,2.3-3.3c1.6,0.4,3.2,0.8,6.6,1.7c-5-9.9-8.7-18.8-13.8-26.8
					c-1.4-2.3-6.8-3.8-9.7-3.1c-6.7,1.7-13,4.9-19.3,7.8c-1.5,0.7-3.1,2.7-3.5,4.4c-2,10.3-3.6,20.7-5.6,32.7
					c13.2-4,25.1-7.5,37.6-11.3c-4-1.3-7.1-2.4-10.3-3.4C194.3,185.7,199.5,186.4,204.8,186.6z"/>
				<linearGradient id="SVGID_6_" gradientUnits="userSpaceOnUse" x1="275.6315" y1="219.3391" x2="275.6315" y2="183.3227">
					<stop  offset="3.278680e-02" style="stop-color:#8CC63F"/>
					<stop  offset="0.1889" style="stop-color:#A3DC26"/>
					<stop  offset="0.3707" style="stop-color:#B8EF11"/>
					<stop  offset="0.5477" style="stop-color:#C4FB04"/>
					<stop  offset="0.7131" style="stop-color:#C8FF00"/>
					<stop  offset="0.9857" style="stop-color:#F7FFD8"/>
				</linearGradient>
				<path class="st8" d="M221.5,219.3c0.4-6.1,3.9-10.4,9.4-12.1c14.8-4.6,29.7-9.1,44.8-12.6c4.5-1,9.9,1.4,14.8,2.2
					c0,0.7-0.1,1.4-0.1,2.1c1.3-1.8,2.6-3.6,5-6.9c-1.2,4.4-1.9,7.1-2.6,9.8c6.2-19.6,24.1-14,37.9-18c-26.1-1.8-51.5,0.8-76.7,5.7
					c-9.7,1.9-19.5,3.9-29.1,6.3c-1.9,0.5-4.4,3.4-4.5,5.2c-0.2,6,0.7,12.1,1.1,18.1C221.6,219.2,221.5,219.3,221.5,219.3z"/>
				<linearGradient id="SVGID_7_" gradientUnits="userSpaceOnUse" x1="101.6852" y1="255.0747" x2="101.6852" y2="210.722">
					<stop  offset="3.278680e-02" style="stop-color:#8CC63F"/>
					<stop  offset="0.1889" style="stop-color:#A3DC26"/>
					<stop  offset="0.3707" style="stop-color:#B8EF11"/>
					<stop  offset="0.5477" style="stop-color:#C4FB04"/>
					<stop  offset="0.7131" style="stop-color:#C8FF00"/>
					<stop  offset="0.9857" style="stop-color:#F7FFD8"/>
				</linearGradient>
				<path class="st9" d="M77.9,255.1c0.9-1.9,2.4-3.8,2.4-5.7c0.1-7,4-10.7,10.1-12.7c6.7-2.1,14.5-5.4,19.3,1.7
					c5.3,7.9,11.2,6.1,18.1,4c0-10.3,0-20.5,0-31.6c-13.3,4.6-26.1,9.1-38.9,13.6c0.2,0.6,0.4,1.3,0.6,1.9c8.4-1,16.9-2.1,25.3-3.1
					c0.1,0.6,0.3,1.2,0.4,1.8c-5.2,1.5-10.4,3-15.6,4.5c-3.5,1-7,1.8-10.4,2.9c-12.6,3.7-14.6,7-13.2,21.5
					C76.6,254.2,77.2,254.7,77.9,255.1z"/>
				<linearGradient id="SVGID_8_" gradientUnits="userSpaceOnUse" x1="286.9837" y1="192.2557" x2="286.9837" y2="170.4171">
					<stop  offset="3.278680e-02" style="stop-color:#8CC63F"/>
					<stop  offset="0.1889" style="stop-color:#A3DC26"/>
					<stop  offset="0.3707" style="stop-color:#B8EF11"/>
					<stop  offset="0.5477" style="stop-color:#C4FB04"/>
					<stop  offset="0.7131" style="stop-color:#C8FF00"/>
					<stop  offset="0.9857" style="stop-color:#F7FFD8"/>
				</linearGradient>
				<path class="st10" d="M242.1,176.6c-5,1.3-10.6,1.7-14.8,4.3c-3.3,2-4.8,6.9-6.3,11.4c42.8-10.8,85.1-19.9,128.8-15.5
					c1.1-2.3,2-4,3.2-6.3c-5,0.9-9.8,2.3-14.5,2.6c-29.3,1.7-58.6,3.2-88,4.6c-2.8,0.1-5.7-0.7-8.5-1.1
					C241.9,176.5,242.1,176.6,242.1,176.6z"/>
				<linearGradient id="SVGID_9_" gradientUnits="userSpaceOnUse" x1="114.5508" y1="264.8298" x2="114.5508" y2="240.709">
					<stop  offset="3.278680e-02" style="stop-color:#8CC63F"/>
					<stop  offset="0.1889" style="stop-color:#A3DC26"/>
					<stop  offset="0.3707" style="stop-color:#B8EF11"/>
					<stop  offset="0.5477" style="stop-color:#C4FB04"/>
					<stop  offset="0.7131" style="stop-color:#C8FF00"/>
					<stop  offset="0.9857" style="stop-color:#F7FFD8"/>
				</linearGradient>
				<path class="st11" d="M133.7,264.6c-1-4-1.7-6.9-2.5-10.2c-5.4,0.4-10.5,0.7-15.6,1.1c-0.1-0.5-0.2-0.9-0.3-1.4
					c4.8-1.3,9.5-2.5,14.3-3.8c-0.1-0.6-0.2-1.3-0.3-1.9c-3.6,0.6-7.4,0.9-10.9,2c-5,1.6-8.3,1.2-10.5-4.4
					c-1.7-4.2-5.1-6.9-12.4-4.3c9.3-0.7,11.1,4.3,12.3,9.9c0.6,2.9,1.3,5.7,1.8,8.6c0.7,3.9,2.7,4.9,6.6,4.6
					C121.6,264.3,127.2,264.6,133.7,264.6z"/>
				<linearGradient id="SVGID_10_" gradientUnits="userSpaceOnUse" x1="158.6816" y1="281.312" x2="158.6816" y2="275.2311">
					<stop  offset="3.278680e-02" style="stop-color:#8CC63F"/>
					<stop  offset="0.1889" style="stop-color:#A3DC26"/>
					<stop  offset="0.3707" style="stop-color:#B8EF11"/>
					<stop  offset="0.5477" style="stop-color:#C4FB04"/>
					<stop  offset="0.7131" style="stop-color:#C8FF00"/>
					<stop  offset="0.9857" style="stop-color:#F7FFD8"/>
				</linearGradient>
				<path class="st12" d="M196.2,275.2c-25,0.6-50.3-1.3-74.9,6.1C146.2,279.3,171.2,277.3,196.2,275.2z"/>
				<linearGradient id="SVGID_11_" gradientUnits="userSpaceOnUse" x1="82.4113" y1="275.632" x2="82.4113" y2="257.2408">
					<stop  offset="3.278680e-02" style="stop-color:#8CC63F"/>
					<stop  offset="0.1889" style="stop-color:#A3DC26"/>
					<stop  offset="0.3707" style="stop-color:#B8EF11"/>
					<stop  offset="0.5477" style="stop-color:#C4FB04"/>
					<stop  offset="0.7131" style="stop-color:#C8FF00"/>
					<stop  offset="0.9857" style="stop-color:#F7FFD8"/>
				</linearGradient>
				<path class="st13" d="M80.2,275.6c3.3-1.5,5.3-2.4,7.3-3.4c-1.2-5.1-2.3-9.9-3.4-15c-2.1,0-4.2,0-6.7,0
					C78.2,263.1,79.2,269.1,80.2,275.6z"/>
				<linearGradient id="SVGID_12_" gradientUnits="userSpaceOnUse" x1="259.4767" y1="223.443" x2="259.4767" y2="212.8783">
					<stop  offset="3.278680e-02" style="stop-color:#8CC63F"/>
					<stop  offset="0.1889" style="stop-color:#A3DC26"/>
					<stop  offset="0.3707" style="stop-color:#B8EF11"/>
					<stop  offset="0.5477" style="stop-color:#C4FB04"/>
					<stop  offset="0.7131" style="stop-color:#C8FF00"/>
					<stop  offset="0.9857" style="stop-color:#F7FFD8"/>
				</linearGradient>
				<path class="st14" d="M281.3,223.4c-2.2-9.8-3.7-11.3-11.7-10.3c-11,1.4-22,2.9-31.9,8.5c9.1-2,18.2-4.1,27.3-5.9
					C271.6,214.5,277.4,215.9,281.3,223.4z"/>
				<linearGradient id="SVGID_13_" gradientUnits="userSpaceOnUse" x1="142.7625" y1="250.2714" x2="142.7625" y2="243.5792">
					<stop  offset="3.278680e-02" style="stop-color:#8CC63F"/>
					<stop  offset="0.1889" style="stop-color:#A3DC26"/>
					<stop  offset="0.3707" style="stop-color:#B8EF11"/>
					<stop  offset="0.5477" style="stop-color:#C4FB04"/>
					<stop  offset="0.7131" style="stop-color:#C8FF00"/>
					<stop  offset="0.9857" style="stop-color:#F7FFD8"/>
				</linearGradient>
				<path class="st15" d="M133.1,250.3c5.9-0.9,11.9-1.7,17.7-2.8c0.8-0.1,1.3-1.4,2-2.2c-0.8-0.6-1.7-1.8-2.3-1.7
					c-6,1.2-11.9,2.6-17.9,4C132.8,248.5,133,249.4,133.1,250.3z"/>
				<linearGradient id="SVGID_14_" gradientUnits="userSpaceOnUse" x1="196.2425" y1="184.8638" x2="196.2425" y2="172.7505">
					<stop  offset="3.278680e-02" style="stop-color:#8CC63F"/>
					<stop  offset="0.1889" style="stop-color:#A3DC26"/>
					<stop  offset="0.3707" style="stop-color:#B8EF11"/>
					<stop  offset="0.5477" style="stop-color:#C4FB04"/>
					<stop  offset="0.7131" style="stop-color:#C8FF00"/>
					<stop  offset="0.9857" style="stop-color:#F7FFD8"/>
				</linearGradient>
				<path class="st16" d="M188.7,184.9c-2.5-9-1.6-10.8,5.8-10.4c1.8,0.1,3.5,2,5.1,3.2c2.6,1.9,5.1,3.8,7.6,5.8
					c-2.4-2.8-4.8-5.6-7.1-8.5c-2.2-2.6-10.8-3.2-13-0.4C184.3,178.3,184.6,182,188.7,184.9z"/>
				<linearGradient id="SVGID_15_" gradientUnits="userSpaceOnUse" x1="342.7037" y1="185.004" x2="342.7037" y2="164.0344">
					<stop  offset="3.278680e-02" style="stop-color:#8CC63F"/>
					<stop  offset="0.1889" style="stop-color:#A3DC26"/>
					<stop  offset="0.3707" style="stop-color:#B8EF11"/>
					<stop  offset="0.5477" style="stop-color:#C4FB04"/>
					<stop  offset="0.7131" style="stop-color:#C8FF00"/>
					<stop  offset="0.9857" style="stop-color:#F7FFD8"/>
				</linearGradient>
				<path class="st17" d="M243.2,176.6l59.7-12.2c0,0,99.5-5,139.3,20.6l-124.4-11.1l-71.9,5.4L243.2,176.6z"/>
			</g>
			<g>
				<linearGradient id="SVGID_16_" gradientUnits="userSpaceOnUse" x1="259.2256" y1="371.9232" x2="259.2256" y2="141.1895">
					<stop  offset="0" style="stop-color:#020202"/>
					<stop  offset="0.7842" style="stop-color:#000000"/>
				</linearGradient>
				<path class="st18" d="M227.3,180.9c-3.3,2-4.8,6.9-6.3,11.4c42.8-10.8,85.1-19.9,128.8-15.5c1.1-2.3,2-4,3.2-6.3
					c-5,0.9-9.8,2.3-14.5,2.6c-29.3,1.7-58.6,3.2-88,4.6c-2.8,0.1-5.7-0.7-8.5-1.1c1.8,0,3.6,0.3,5.4,0.1c14.7-2,29.5-4,44.2-6.3
					c49.7-7.7,98.5-3.9,146.2,12.4c2.4,0.8,5.5,2.5,6.2,4.5c2.2,6.3,4.2,12.9,4.9,19.6c1.1,10.7,0.6,10.7-10.2,10.6
					c-1.6,0-3.2,0-4.7,0c-6.3-0.2-12.6-0.4-19-0.6c-7.3-1-14.5-2.7-21.8-3c-23.4-0.9-46.9-1.8-70.3-1.6c-11.2,0.1-22.3,2.5-33.8,3.9
					c-0.6-1.8-1.2-3.4-1.8-5.1c-2.9-7.7-6.2-10.2-14.3-9.1c-11.2,1.5-22.2,3.6-33.3,5.5c-7.6,1.4-14.2,4.5-17.8,11.9
					c0.4-6.1,3.9-10.4,9.4-12.1c14.8-4.6,29.7-9.1,44.8-12.6c4.5-1,9.9,1.4,14.8,2.2c0,0.7-0.1,1.4-0.1,2.1c1.3-1.8,2.6-3.6,5-6.9
					c-1.2,4.4-1.9,7.1-2.6,9.8c6.2-19.6,24.1-14,37.9-18c-26.1-1.8-51.5,0.8-76.7,5.7c-9.7,1.9-19.5,3.9-29.1,6.3
					c-1.9,0.5-4.4,3.4-4.5,5.2c-0.2,6,0.7,12.1,1.1,18.1c0,5.8,0,11.6,0,17.4c-0.4,0-0.7,0.1-1.1,0.1c-1.1-12.7-2.3-25.4-3.5-39
					c-9.8,2.4-19.7,4.9-29.6,7.3c-0.1-0.4-0.2-0.8-0.4-1.2c8.5-2.6,17-5.5,25.6-7.7c4.1-1.1,5.2-3.4,6.8-7.1
					c3.9-9.4,0.9-16.9-4.5-24.3c-3.3-4.5-6.1-9.3-9.8-15c10.3-0.7,19.6-1.4,27.8-1.9c-9.6,0-20.4,0-32.1,0c4,6.7,7.5,12.5,10.9,18.2
					c-0.4,0.3-0.8,0.5-1.2,0.8c-3-4-6-8-9-12c-3.1-4.1-6.9-5.7-11.9-3.7c-11.7,4.9-23.4,9.5-34.9,14.8c-3.3,1.5-6.7,4.4-8.3,7.6
					c-10.5,21.2-15.3,43.7-14.9,68.7c7-1.2,13.3-2.2,20.4-3.4c0-12,0-23.6,0-35.5c-3.6,0.8-7.7,1.8-11.8,2.7
					c-1.2-15.9,9.2-34.7,20.7-37.7c-1.6,23.1-9.5,45.5-7.7,70.2c21.1-3.5,41.7-6.8,62.2-10.2c0.1,0.4,0.2,0.8,0.3,1.2
					c-14.7,3.2-29.4,6.4-44.2,9.6c-4.4,1-8.9,1.7-13.2,2.9c-1.7,0.5-3,1.9-4.5,2.9c0.3,0.7,0.6,1.4,0.9,2.1
					c20.8-3,41.6-6.1,62.4-9.1c0.1,0.9,0.3,1.8,0.4,2.6c-27.7,4.4-55.4,8.9-83.7,13.4c0.5,3.4,1,6.4,1.4,9.7c3.3,0,5.9,0,8.6,0
					c0,0.3,0.1,0.5,0.1,0.8c-4.2,0.9-8.4,1.7-12.6,2.6c0,0.2,0,0.4,0,0.7c15.8-1.3,31.6-2.7,47.4-4c0,0.3,0.1,0.7,0.1,1
					c-15.4,2.1-30.8,4.2-46.2,6.3c0,0.3,0,0.6,0,0.9c24.9-1.4,49.9-2.8,74.8-4.2c0,0.4,0.1,0.8,0.1,1.2c-1.5,0.2-3.1,0.5-4.6,0.7
					c8.1,0.1,16.7,1.2,21.4-7.5c1.2-2.3,1.9-5.1,2.1-7.7c0.5-9-0.1-18,1.2-26.9c1.2-7.9,6.9-13.1,14.9-14.9c8.8-2,17.6-4,26.5-5.5
					c9.2-1.5,14.5,2,17.6,10.8c1.6,4.7,3.2,9.3,4.8,14c1.2,3.5,2.4,7.1,3.7,10.6c1.2,3.9,2.1,7.9,3.7,11.5
					c4.9,11.3,1.6,9.4,14.5,9.1c8.9-0.2,17.7-0.7,27.9-1.2c-3.6,5.2-6.2,9-9.5,13.9c8.9-4.3,12.2-14.8,23.4-14.4
					c-1.3,1.8-2.1,2.9-2.9,4.2c3.7-1.7,6.8-4,10.1-4.4c6.2-0.8,12.5-0.4,18.7-0.6c17-0.7,34-1.6,51-2.3c0.1,0.4,0.2,0.8,0.4,1.2
					c-1.8,1.2-3.5,2.4-5.6,3.7c1.4,1.5,2.6,2.8,3.8,4.1c15,15.8,18.4,39.9,8.7,59.9c-8.6,17.7-22.8,24.3-47.2,22.5
					c-14.3-1.1-24-8.6-30.1-21c-2.7-5.4-4.3-11.3-6.7-17.7c-8.4,2-18.7-3.4-24.9,7.7c-1.1,1.9-5.1,2.4-7.9,2.9
					c-2.8,0.6-5.7,0.4-7.4,0.5c-3.2,9.4-5.3,18.2-9,26.3c-5.4,11.9-14.3,20.5-27.8,22.3c-8.9,1.2-18,1.5-27,1.4
					c-14.4-0.2-25-7.1-31.6-19.8c-2.4-4.6-4.3-9.5-5.8-14.4c-1.2-4.1-3.2-5.5-7.2-7.2c-4.5-1.9-8.3-6.4-11.2-10.6
					c-2.3-3.4-2.7-8-4.4-13.4c-5,1.2-10.6,1.4-14.8,3.9c-6,3.7-15.9,4.9-22.1,1c-1.4-0.9-3.2-1.7-4.8-1.7c-5.9,0-11.7,0.5-17.6,0.6
					c-3.7,0.1-4.9,1.8-5.5,5.3c-0.9,5.3-2.1,10.6-4,15.7c-4.7,12.4-15.2,14-26.7,13.9c-10.6-0.1-16.9-5.6-20.3-14.9
					c-5.6-15.2-5.7-30.4-0.2-45.7c0.8-2.1,1.2-4.9,0.4-6.8c-5.6-13.5-6.5-27.6-5.6-42c0.6-9.3,4.2-13.8,13.2-16.6
					c10.6-3.3,20.9-7.3,31.7-9.9c10.6-2.6,17.4-7.3,18.7-19.2c0.6-5.9,3.6-11.6,6.4-17c1.9-3.7,4.5-7.9,8-9.8
					c21.4-12,43.4-22.6,68.8-21.9c26.5,0.7,51.6,7.7,76.1,17.4c4.3,1.7,8.2,4.2,12,6.3c-21.1,3.9-41.7,7.8-62.4,11.6
					C237.1,177.9,231.5,178.3,227.3,180.9z M108.1,329.2c-3.6-1.6-5.2-2.3-7.7-3.4c3.1-1.4,5.5-2.5,8.7-3.9
					c-3.1-1.8-5.1-2.9-7.6-4.4c3.4-1.2,5.6-2,9.4-3.3c-3.9-2.1-6.1-3.2-9-4.8c3.2-1.1,5.4-1.9,9.3-3.2c-4.3-2.2-6.7-3.4-9.8-5
					c6.4-1.7,6.4-1.7-0.8-9.1c2.2,0.1,3.9,0.2,5.7,0.3c0.2-0.6,0.5-1.1,0.7-1.7c-2.8-1.4-5.5-2.9-9.7-5c3-0.2,4.6-0.3,6.2-0.3
					c0.1-0.5,0.3-1,0.4-1.4c-3.2-1-6.5-2.1-10.8-3.4c1.9,6.3,3.2,11.6,5,16.7c3.4,9.1,1.7,18.4,1,27.6c-0.2,2.3-0.2,4.7-0.3,7.1
					c-0.9-0.4-2.5-1.2-2.6-1.1c-1.8,2.9-3.4,5.9-5.6,9.8c3.1,0.1,5.1,0.2,7.6,0.3c-1.2-1.3-1.9-2.2-3.1-3.5c2.9-0.5,5.2-1,5.8-1.1
					c-0.6-1.2-1.5-3-2.3-4.7C101.3,331,103.8,330.3,108.1,329.2z M261.6,359.8c3.2-0.7,6.2-2.1,8.8-4.6c-3.3-0.7-6.5-1.4-10.8-2.2
					c5-5.7,14.9,1.4,16.4-8.4c-3.6-0.9-7-1.8-11.1-2.8c3.1-7.1,15.5,2.1,14.3-9.5c-3.8-1.1-7.5-2.2-11.2-3.3c0-0.8-0.1-1.7-0.1-2.5
					c1.8-0.3,3.7-0.6,5.5-1c2.3-0.5,5.4-0.4,6.8-1.9c2.4-2.6,2.3-5.2-2.4-5.8c-3.1-0.4-6.1-1.9-9.2-2.9c0.1-0.9,0.2-1.9,0.2-2.8
					c1.9,0,3.9-0.5,5.5,0.1c3.9,1.5,6.5,0.3,6.9-3.5c0.1-1.2-3-3.1-4.9-4.2c-2.9-1.5-6-2.6-9-3.9c0-0.6,0.1-1.3,0.1-1.9
					c1.6-0.3,3.5-1.2,4.7-0.7c3.2,1.4,6.4,2.7,7.5-1.8c1-4.2-2-4.8-5.7-5.2c-3.3-0.4-6.4-2.4-9.6-3.7c0.2-0.7,0.4-1.5,0.6-2.2
					c1.8,0.2,3.7,0.7,5.5,0.5c2-0.2,4-0.9,6-1.5c-1.6-1.7-2.9-4.1-4.9-4.9c-3.7-1.6-7.7-2.3-11.6-3.4c0.1-0.7,0.3-1.5,0.4-2.2
					c3.8,0.3,7.6,0.6,11.4,0.9c0.2-1.1,0.4-2.2,0.6-3.3c-6.1-1.7-12.2-3.4-18.2-5.1c0-0.5,0.1-1.1,0.1-1.6c3.6,0.3,7.1,0.6,10.7,0.9
					c0.2-0.9,0.3-1.8,0.5-2.7c-6.2-1.1-12.3-2.2-18.5-3.2c0-0.3,0-0.6,0-0.9c3.1,0,6.1,0,9.2,0c0-0.7-0.1-1.3-0.1-2
					c-6.1,0.3-12.3,0.6-18.9,0.9c0.3,3.5,0.5,5.7,0.8,8c0.5,0,0.9,0.1,1.4,0.1c0.8-1.7,1.5-3.4,2.9-6.4c0.6,3.4,0.9,5.5,1.5,9
					c1.6-2.3,2.6-3.7,4.4-6.2c0,3.7,0,6.1,0,9.6c1.7-1.9,2.6-2.9,4.3-4.7c-0.2,4-0.3,6.8-0.5,10.5c1.9-1.2,2.9-1.8,4.4-2.7
					c0,1.7,0.2,3,0,4.2c-0.6,2.8-2.7,6.2,3,5.5c0.2,0,1.4,3,0.9,3.7c-3,4.6-0.3,6.3,3.9,7.5c-1.5,3.9-6.2,8.2,1.9,10.3
					c-2.8,4-6.2,7.9,0.6,11.3c-4.4,3.6-6.6,7.2,0.8,11.2c-9.6,2.3-5.3,6.7-3.3,10.8c-10.2,0.2-3.1,5.8-3.4,10
					c-1.7-0.7-3-1.2-5.4-2.1c0.7,3.4,1.2,6.2,2,10.4c-2.2-1.9-3.3-2.9-5.6-4.8c0.3,3.5,0.5,5.9,0.7,8.4c-1.4-1.1-2.8-2.2-4.8-3.7
					c-0.1,2.7-0.2,5.1-0.4,9.5c-1.8-3.3-2.7-5-4.4-8.3c0,3.8,0,5.8,0,8.5c6.9-0.6,13.4-1.1,20-1.6c-0.1-0.5-0.1-1-0.2-1.5
					c-3.5-1-6.9-1.9-10.4-2.9C255.5,360.5,258.6,360.4,261.6,359.8z M80.3,249.4c0.1-7,4-10.7,10.1-12.7c6.7-2.1,14.5-5.4,19.3,1.7
					c5.3,7.9,11.2,6.1,18.1,4c0-10.3,0-20.5,0-31.6c-13.3,4.6-26.1,9.1-38.9,13.6c0.2,0.6,0.4,1.3,0.6,1.9c8.4-1,16.9-2.1,25.3-3.1
					c0.1,0.6,0.3,1.2,0.4,1.8c-5.2,1.5-10.4,3-15.6,4.5c-3.5,1-7,1.8-10.4,2.9c-12.6,3.7-14.6,7-13.2,21.5c0.7,0.4,1.3,0.8,2,1.3
					C78.7,253.2,80.3,251.3,80.3,249.4z M235.3,328.8c0.4-0.3,0.7-0.6,1.1-0.8c2.1,2.4,4.2,4.8,6.4,7.2c0.2-0.2,0.4-0.3,0.6-0.5
					c-1.3-3.2-2.7-6.3-4-9.5c0.3-0.2,0.7-0.4,1-0.6c1.6,1.9,3.1,3.8,4.8,5.8c5.1-6.4,4.2-25.9-1.6-34.3c-1.6,2.3-3.1,4.4-4.5,6.5
					c-0.3-0.1-0.7-0.2-1-0.3c1-3.2,2-6.5,3-9.7c-0.2-0.2-0.4-0.4-0.6-0.6c-1.9,2.4-3.7,4.9-5.6,7.3c-0.4-0.3-0.8-0.5-1.2-0.8
					c2.4-3.6,4.8-7.2,7.6-11.3c-3-3.4-7.2-2.9-9.9,1.8c-2.4,4.2-4.2,9.1-4.7,13.9c-1.4,11.6-0.5,23.1,5.8,33.4
					c3.7,6.2,7.1,6.7,11.5,3.3C240.9,336,238.1,332.4,235.3,328.8z M397.4,337.3c-0.4,2.4-0.6,4.2-1,6.8c-1.6-1.9-2.7-3.2-3.8-4.5
					c-0.5,0.2-0.9,0.4-1.3,0.5c0.8,1.7,1.7,4.8,2.4,4.8c6-0.4,12.1-1.4,19.4-2.4c-2.6-1.7-3.6-2.3-5.3-3.4c4.1-1.2,7.5-2.2,11.9-3.5
					c-2.8-1.7-4.2-2.6-6.5-4c3.9-1.5,7-2.6,11.4-4.3c-3.5-2.1-5.4-3.2-7.7-4.6c3.6-1.7,6.4-3,10.6-4.9c-4.1-2.3-6.3-3.5-8.7-4.9
					c3.4-1.7,5.9-2.9,9.7-4.8c-4.5-2.4-7.1-3.8-9.6-5.2c0.1-0.5,0.2-1,0.3-1.5c1.9-0.2,3.9-0.3,5.9-0.5c3.1-7.7-7.6-4.1-7.4-9.9
					c1.6,0.1,3.3,0.2,5.3,0.3c2.4-8.4-8.2-4.1-9.1-9.9c1.9,0.1,3.8,0.3,5.6,0.4c0.3-0.7,0.7-1.3,1-2c-3.8-2-7.6-3.9-12.7-6.6
					c3.1,0,5,0,7.1,0c-3-4.3-6.3-3.5-14,3.4c2.6-0.5,4-0.7,5.8-1.1c0.9,2.8-4.5,9.9,5,6.7c-0.1,3.6-5.7,9.4,4,7.8
					c-1.9,3.8-6.9,7.9,2.9,8.5c-5.7,3.6-6,6.4,0.4,8.9c-5.8,2.2-7.6,4.7-0.3,8.2c-8.5,0.9-6.7,4.3-2.8,8.4c-2.6,0-4.2,0-6.5,0
					c1,2.6,1.7,4.5,2.8,7.2c-2.2-0.5-3.8-0.8-6.4-1.4c0.8,2.7,1.4,4.4,2.3,7.2c-2.2-1.2-3.7-1.9-5.9-3.1c0.1,2.5,0.2,4.5,0.4,7.4
					C400.4,340,399.2,338.9,397.4,337.3z M347,192.5c-2.6-1.8-3.8-3.4-4.8-3.3c-11.2,1.3-22.4,2.9-33.6,4.4
					c-8.4,1.1-9.2,7.3-8.7,14.2c0.3-0.8,0.7-1.7,1.2-3c0.9,1.5,1.7,2.8,2.9,4.6c1-2,1.7-3.3,2.6-4.9c2,5.8,3.6,2.3,5.1-0.2
					c0.9,1.1,1.6,2.1,2.7,3.4c0.8-1.7,1.3-2.8,2.5-5.5c0.8,2,1.3,3.4,2.3,6.1c1.3-3.2,1.9-4.4,2.5-6c1,1.4,1.8,2.6,3.2,4.6
					c0.8-2,1.3-3.3,2-5c0.9,1.3,1.8,2.5,3.1,4.2c1-1.9,1.7-3.4,2.4-4.9c0.7,1.3,1.4,2.5,2.6,4.5c1.2-2,2-3.3,2.8-4.7
					c0.8,1.4,1.5,2.6,2.6,4.5c1-2.1,1.6-3.4,2.4-5.3c1,1.7,1.7,3,2.5,4.4c0.4-0.1,0.9-0.2,1.3-0.3c-0.2-2.2-0.3-4.4-0.5-6.7
					c-10.8,0-21,0-31.3,0c0.1-0.3,0.2-0.6,0.4-0.9C325.3,195.6,335.2,194.2,347,192.5z M361.2,173.6c-5.4-0.7-7.1,1.6-7.7,6.6
					c-2.6,21.7-1.4,23.9,19.9,26.7c15.4,2,30.9,2.9,46.4,3.6c-18.9-2.7-37.9-5.5-56.8-8c-4.4-0.6-6.1-2.5-6.6-6.8
					c-2.1-18.7-0.7-20.4,18.1-18.9c8.5,0.7,17,1.6,25.5,2.4c0-0.4,0.1-0.9,0.1-1.3C387.1,176.5,374.1,175.3,361.2,173.6z
					 M131.2,254.4c-5.4,0.4-10.5,0.7-15.6,1.1c-0.1-0.5-0.2-0.9-0.3-1.4c4.8-1.3,9.5-2.5,14.3-3.8c-0.1-0.6-0.2-1.3-0.3-1.9
					c-3.6,0.6-7.4,0.9-10.9,2c-5,1.6-8.3,1.2-10.5-4.4c-1.7-4.2-5.1-6.9-12.4-4.3c9.3-0.7,11.1,4.3,12.3,9.9
					c0.6,2.9,1.3,5.7,1.8,8.6c0.7,3.9,2.7,4.9,6.6,4.6c5.5-0.5,11.1-0.1,17.5-0.1C132.7,260.7,132,257.7,131.2,254.4z M80,307.7
					c-0.3,10.8,2.8,16.8,8.6,17.8c0-2.6-5-5.9,1.9-7.5c3.5-0.8,0.5-15.2-2.9-17.3c-1.4-0.9-1.1-4.5-1.8-8.2
					C79.5,295.4,80.2,302,80,307.7z M397.7,312c-8.1-1.1-15.6-2.2-23.4-3.3c1.1,13,9.5,19.4,18.5,15.6c-2.6-1.9-5.4-3.8-8.1-5.8
					c0.3-0.4,0.5-0.9,0.8-1.3c1.6,1,3.2,2.1,5.9,3.7c-1.5-3.3-2.6-5.7-4.3-9.3C394.6,318.6,394.6,318.6,397.7,312z M121.2,281.3
					c25-2,50-4.1,74.9-6.1C171.2,275.9,145.8,273.9,121.2,281.3z M130.1,285.7c1.2,5.3,2.1,9.1,3.2,13.7c7.3-2.5,14-4.8,20.6-7.1
					c0-0.5,0.1-1,0.1-1.5C146.5,289.3,139,287.6,130.1,285.7z M372.6,188.5c-0.1,0.6-0.2,1.2-0.2,1.8c19.6,2.6,39.2,5.2,58.8,7.8
					c0.1-0.7,0.2-1.4,0.3-2.1C411.8,193.5,392.2,191,372.6,188.5z M87.5,272.3c-1.2-5.1-2.3-9.9-3.4-15c-2.1,0-4.2,0-6.7,0
					c0.9,5.9,1.9,11.8,2.9,18.4C83.5,274.1,85.5,273.2,87.5,272.3z M323.2,293.3c3.3,2.7,6.7,5.7,10.4,8.2c1.3,0.9,3.3,1.1,4.9,1
					c5.1-0.2,10.2-0.6,15.3-0.9c0-0.5-0.1-1-0.1-1.5C343.3,297.8,332.9,295.5,323.2,293.3z M355.3,295.1c0.7-3.4,1.2-6.2,2.1-10.4
					c-7.1,1.7-13.4,3.3-19.8,4.9c-0.1,0.5-0.1,1-0.2,1.5 M269.6,213.2c-11,1.4-22,2.9-31.9,8.5c9.1-2,18.2-4.1,27.3-5.9
					c6.6-1.3,12.5,0,16.3,7.6C279.1,213.7,277.6,212.1,269.6,213.2z M382.7,300.4c-0.8-5.4-1.6-10-2.3-14.5
					c-0.6-0.2-1.3-0.5-1.9-0.7c-2.1,4.2-4.3,8.4-7,13.8C376.1,299.6,379.1,300,382.7,300.4z M180.5,282.6c-6.2,0.5-10.6,0.9-15,1.2
					c-4.4,0.4-8.9,0.8-13.3,1.2C163.9,289.8,165.3,289.6,180.5,282.6z M424.3,202.7c0-0.5,0.1-1,0.1-1.5
					c-15.4-1.5-30.9-2.9-46.3-4.4c0,0.4,0,0.8,0.1,1.2C393.6,199.6,408.9,201.2,424.3,202.7z M150.9,247.5c0.8-0.1,1.3-1.4,2-2.2
					c-0.8-0.6-1.7-1.8-2.3-1.7c-6,1.2-11.9,2.6-17.9,4c0.2,0.9,0.3,1.8,0.5,2.7C139.1,249.4,145,248.5,150.9,247.5z M173.3,290.2
					c8.5,4,13.2-3.1,19.2-6.6 M397.4,185c-5-0.8-10.2-1.1-15.4-0.8c6.2,1,12.5,2.1,18.7,3.1c6.2,1,12.3,2,18.5,3
					c0.2-0.4,0.3-0.8,0.5-1.2C412.3,187.7,404.9,186.2,397.4,185z M198.9,307.2c1.9,3.6,3.5,6.5,5.5,10.2c1.2-4.2,1.9-6.8,2.9-10.2
					C204.8,307.2,202.5,307.2,198.9,307.2z M315.3,285.3c0.1,0.7,0.1,1.4,0.2,2.1c6.5-0.5,12.9-1,19.4-1.5c-0.3-0.7-0.5-1.3-0.8-2
					C327.8,284.4,321.6,284.8,315.3,285.3z M306.6,312.8c-1.3,1.6-2.6,3.2-3.9,4.8c1.9,1.1,3.9,2.2,5.8,3.4c0.7-0.8,1.4-1.7,2.1-2.5
					C309.3,316.5,308,314.6,306.6,312.8z M305.4,301.4c-0.8,1.2-2.5,3.2-2.2,3.4c1.5,1.7,3.5,3,5.3,4.5c0.8-1,1.5-1.9,2.3-2.9
					C309,304.8,307.2,303.1,305.4,301.4z"/>
				<linearGradient id="SVGID_17_" gradientUnits="userSpaceOnUse" x1="374.6033" y1="261.8447" x2="374.6033" y2="214.1109">
					<stop  offset="0" style="stop-color:#050505"/>
					<stop  offset="1" style="stop-color:#000000"/>
				</linearGradient>
				<path class="st19" d="M451.8,219.2c6,0.5,8.6,3.7,7.6,9.4c-1,6-2.1,12-3.7,17.8c-2.8,9.4-4.3,10-13.8,10.3
					c-43.9,1.6-87.8,3.6-131.7,5.1c-2.4,0.1-5.8-2-7.1-4.1c-3.2-4.8-5.4-10.3-8.1-15.5c-1.2-3.5-2.4-7.1-3.7-10.6
					c-0.5-4-1.1-8-1.7-12.4c1.2-0.5,2.3-1.3,3.6-1.4c40.5-5.5,81.1-4.2,121.6-1.2c6.3,0.2,12.6,0.4,19,0.6
					C439.8,218,445.8,218.7,451.8,219.2z M454.3,224.6c-53.1-3.8-105.7-9.2-158.5-0.1c10.3,0,20.5,0,30.8,0c0,0.1,0,0.3,0,0.4
					c-9.8,1.5-19.7,2.9-29.5,4.4c0.1,0.7,0.2,1.5,0.2,2.2c25.9-1.1,51.7-3.3,77.5-3.2c26.1,0.2,52.2,2.6,78.8,4.1
					C453.9,230.4,454,228,454.3,224.6z M305.6,246.1c20.2-0.5,41-1.5,61.7-1.4c20.7,0.2,41.5,1.5,62.2,3.2
					c-40.3,0.3-80.5,1.8-120.3,8.6c10.5-0.6,21-1.4,31.5-1.7c33.6-1.2,67.3-2.5,100.9-3.3c6.5-0.1,9-2.3,9.3-8.9
					C413.3,237.8,318.6,240.2,305.6,246.1z"/>
				<linearGradient id="SVGID_18_" gradientUnits="userSpaceOnUse" x1="187.7116" y1="199.8903" x2="187.7116" y2="154.8553">
					<stop  offset="0" style="stop-color:#7D7D7D"/>
					<stop  offset="1" style="stop-color:#000000"/>
				</linearGradient>
				<path class="st20" d="M207.1,183.3c1.6,0.4,3.2,0.8,6.6,1.7c-5-9.9-8.7-18.8-13.8-26.8c-1.4-2.3-6.8-3.8-9.7-3.1
					c-6.7,1.7-13,4.9-19.3,7.8c-1.5,0.7-3.1,2.7-3.5,4.4c-2,10.3-3.6,20.7-5.6,32.7c13.2-4,25.1-7.5,37.6-11.3
					c-4-1.3-7.1-2.4-10.3-3.4c0,0-0.3-0.3-0.3-0.3c-4.1-2.8-4.4-6.6-1.6-10.2c2.2-2.9,10.8-2.3,13,0.4c2.4,2.8,4.7,5.7,7.1,8.5
					C207.2,183.5,207.1,183.3,207.1,183.3z"/>
				<linearGradient id="SVGID_19_" gradientUnits="userSpaceOnUse" x1="197.3173" y1="186.5699" x2="197.3173" y2="174.4421">
					<stop  offset="0" style="stop-color:#7D7D7D"/>
					<stop  offset="1" style="stop-color:#000000"/>
				</linearGradient>
				<path class="st21" d="M188.7,184.9c0,0,0.3,0.3,0.3,0.3c5.2,0.5,10.5,1.2,15.7,1.4c0.7,0,1.5-2.1,2.3-3.3c0,0,0.2,0.2,0.2,0.2
					c-2.5-1.9-5-3.9-7.6-5.8c-1.7-1.2-3.4-3.1-5.1-3.2C187.1,174,186.2,175.9,188.7,184.9z"/>
			</g>
		</g>
		<g>
			<path class="st4" d="M252.4,360.8c3.1-0.3,6.2-0.4,9.2-1c3.2-0.7,6.2-2.1,8.8-4.6c-3.3-0.7-6.5-1.4-10.8-2.2
				c5-5.7,14.9,1.4,16.4-8.4c-3.6-0.9-7-1.8-11.1-2.8c3.1-7.1,15.5,2.1,14.3-9.5c-3.8-1.1-7.5-2.2-11.2-3.3c0-0.8-0.1-1.7-0.1-2.5
				c1.8-0.3,3.7-0.6,5.5-1c2.3-0.5,5.4-0.4,6.8-1.9c2.4-2.6,2.3-5.2-2.4-5.8c-3.1-0.4-6.1-1.9-9.2-2.9c0.1-0.9,0.2-1.9,0.2-2.8
				c1.9,0,3.9-0.5,5.5,0.1c3.9,1.5,6.5,0.3,6.9-3.5c0.1-1.2-3-3.1-4.9-4.2c-2.9-1.5-6-2.6-9-3.9c0-0.6,0.1-1.3,0.1-1.9
				c1.6-0.3,3.5-1.2,4.7-0.7c3.2,1.4,6.4,2.7,7.5-1.8c1-4.2-2-4.8-5.7-5.2c-3.3-0.4-6.4-2.4-9.6-3.7c0.2-0.7,0.4-1.5,0.6-2.2
				c1.8,0.2,3.7,0.7,5.5,0.5c2-0.2,4-0.9,6-1.5c-1.6-1.7-2.9-4.1-4.9-4.9c-3.7-1.6-7.7-2.3-11.6-3.4c0.1-0.7,0.3-1.5,0.4-2.2
				c3.8,0.3,7.6,0.6,11.4,0.9c0.2-1.1,0.4-2.2,0.6-3.3c-6.1-1.7-12.2-3.4-18.2-5.1c0-0.5,0.1-1.1,0.1-1.6c3.6,0.3,7.1,0.6,10.7,0.9
				c0.2-0.9,0.3-1.8,0.5-2.7c-6.2-1.1-12.3-2.2-18.5-3.2c0-0.3,0-0.6,0-0.9c3.1,0,6.1,0,9.2,0c0-0.7-0.1-1.3-0.1-2
				c-6.1,0.3-12.3,0.6-18.9,0.9c0.3,3.5,0.5,5.7,0.8,8c0.5,0,0.9,0.1,1.4,0.1c0.8-1.7,1.5-3.4,2.9-6.4c0.6,3.4,0.9,5.5,1.5,9
				c1.6-2.3,2.6-3.7,4.4-6.2c0,3.7,0,6.1,0,9.6c1.7-1.9,2.6-2.9,4.3-4.7c-0.2,4-0.3,6.8-0.5,10.5c1.9-1.2,2.9-1.8,4.4-2.7
				c0,1.7,0.2,3,0,4.2c-0.6,2.8-2.7,6.2,3,5.5c0.2,0,1.4,3,0.9,3.7c-3,4.6-0.3,6.3,3.9,7.5c-1.5,3.9-6.2,8.2,1.9,10.3
				c-2.8,4-6.2,7.9,0.6,11.3c-4.4,3.6-6.6,7.2,0.8,11.2c-9.6,2.3-5.3,6.7-3.3,10.8c-10.2,0.2-3.1,5.8-3.4,10c-1.7-0.7-3-1.2-5.4-2.1
				c0.7,3.4,1.2,6.2,2,10.4c-2.2-1.9-3.3-2.9-5.6-4.8c0.3,3.5,0.5,5.9,0.7,8.4L252.4,360.8z"/>
			<path class="st4" d="M402.3,341.5c-1.8-1.6-3-2.6-4.9-4.2c-0.4,2.4-0.6,4.2-1,6.8c-1.6-1.9-2.7-3.2-3.8-4.5
				c-0.5,0.2-0.9,0.4-1.3,0.5c0.8,1.7,1.7,4.8,2.4,4.8c6-0.4,12.1-1.4,19.4-2.4c-2.6-1.7-3.6-2.3-5.3-3.4c4.1-1.2,7.5-2.2,11.9-3.5
				c-2.8-1.7-4.2-2.6-6.5-4c3.9-1.5,7-2.6,11.4-4.3c-3.5-2.1-5.4-3.2-7.7-4.6c3.6-1.7,6.4-3,10.6-4.9c-4.1-2.3-6.3-3.5-8.7-4.9
				c3.4-1.7,5.9-2.9,9.7-4.8c-4.5-2.4-7.1-3.8-9.6-5.2c0.1-0.5,0.2-1,0.3-1.5c1.9-0.2,3.9-0.3,5.9-0.5c3.1-7.7-7.6-4.1-7.4-9.9
				c1.6,0.1,3.3,0.2,5.3,0.3c2.4-8.4-8.2-4.1-9.1-9.9c1.9,0.1,3.8,0.3,5.6,0.4c0.3-0.7,0.7-1.3,1-2c-3.8-2-7.6-3.9-12.7-6.6
				c3.1,0,5,0,7.1,0c-3-4.3-6.3-3.5-14,3.4c2.6-0.5,4-0.7,5.8-1.1c0.9,2.8-4.5,9.9,5,6.7c-0.1,3.6-5.7,9.4,4,7.8
				c-1.9,3.8-6.9,7.9,2.9,8.5c-5.7,3.6-6,6.4,0.4,8.9c-5.8,2.2-7.6,4.7-0.3,8.2c-8.5,0.9-6.7,4.3-2.8,8.4c-2.6,0-4.2,0-6.5,0
				c1,2.6,1.7,4.5,2.8,7.2c-2.2-0.5-3.8-0.8-6.4-1.4c0.8,2.7,1.4,4.4,2.3,7.2c-2.2-1.2-3.7-1.9-5.9-3.1
				C402,336.7,402.1,338.7,402.3,341.5z"/>
			<path class="st4" d="M98.7,331.7c2.5-0.7,5.1-1.3,9.4-2.4c-3.6-1.6-5.2-2.3-7.7-3.4c3.1-1.4,5.5-2.5,8.7-3.9
				c-3.1-1.8-5.1-2.9-7.6-4.4c3.4-1.2,5.6-2,9.4-3.3c-3.9-2.1-6.1-3.2-9-4.8c3.2-1.1,5.4-1.9,9.3-3.2c-4.3-2.2-6.7-3.4-9.8-5
				c6.4-1.7,6.4-1.7-0.8-9.1c2.2,0.1,3.9,0.2,5.7,0.3c0.2-0.6,0.5-1.1,0.7-1.7c-2.8-1.4-5.5-2.9-9.7-5c3-0.2,4.6-0.3,6.2-0.3
				c0.1-0.5,0.3-1,0.4-1.4c-3.2-1-6.5-2.1-10.8-3.4c1.9,6.3,3.2,11.6,5,16.7c3.4,9.1,1.7,18.4,1,27.6c-0.2,2.3-0.2,4.7-0.3,7.1
				L98.7,331.7z"/>
			<path class="st4" d="M252.6,360.9c-1.4-1.1-2.8-2.2-4.8-3.7c-0.1,2.7-0.2,5.1-0.4,9.5c-1.8-3.3-2.7-5-4.4-8.3c0,3.8,0,5.8,0,8.5
				c6.9-0.6,13.4-1.1,20-1.6c-0.1-0.5-0.1-1-0.2-1.5c-3.5-1-6.9-1.9-10.4-2.9C252.4,360.8,252.6,360.9,252.6,360.9z"/>
		</g>
		<g>
			<path class="st22" d="M453.7,232.5c0.2-2.1,0.3-4.4,0.6-7.8c-53.1-3.8-105.7-9.2-158.5-0.1c10.3,0,20.5,0,30.8,0
				c0,0.1,0,0.3,0,0.4c-9.8,1.5-19.7,2.9-29.5,4.4c0.1,0.7,0.2,1.5,0.2,2.2c25.9-1.1,51.7-3.3,77.5-3.2
				C401,228.5,427.1,231,453.7,232.5z"/>
			<path class="st22" d="M450.9,242.7c-37.7-4.9-132.4-2.5-145.4,3.4c20.2-0.5,41-1.5,61.7-1.4c20.7,0.2,41.5,1.5,62.2,3.2
				c-40.3,0.3-80.5,1.8-120.3,8.6c10.5-0.6,21-1.4,31.5-1.7c33.6-1.2,67.3-2.5,100.9-3.3C448.1,251.4,450.7,249.2,450.9,242.7z"/>
		</g>
		<g>
			<path class="st4" d="M431.4,196c-19.6-2.5-39.2-5-58.8-7.5c-0.1,0.6-0.2,1.2-0.2,1.8c19.6,2.6,39.2,5.2,58.8,7.8
				C431.2,197.4,431.3,196.7,431.4,196z"/>
			<path class="st4" d="M378.2,198.1c15.4,1.5,30.7,3.1,46.1,4.6c0-0.5,0.1-1,0.1-1.5c-15.4-1.5-30.9-2.9-46.3-4.4
				C378.2,197.3,378.2,197.7,378.2,198.1z"/>
			<path class="st4" d="M419.8,189c-7.5-1.3-14.9-2.8-22.4-4c-5-0.8-10.2-1.1-15.4-0.8c6.2,1,12.5,2.1,18.7,3.1c6.2,1,12.3,2,18.5,3
				C419.5,189.8,419.6,189.4,419.8,189z"/>
			<path class="st4" d="M400,177.9c-12.9-1.4-25.9-2.6-38.8-4.3c-5.4-0.7-7.1,1.6-7.7,6.6c-2.6,21.7-1.4,23.9,19.9,26.7
				c15.4,2,30.9,2.9,46.4,3.6c-18.9-2.7-37.9-5.5-56.8-8c-4.4-0.6-6.1-2.5-6.6-6.8c-2.1-18.7-0.7-20.4,18.1-18.9
				c8.5,0.7,17,1.6,25.5,2.4C399.9,178.8,400,178.3,400,177.9z"/>
		</g>
	</g>
</g>
</svg>
